%YAML 1.1
%TAG !u! tag:unity3d.com,2011:
--- !u!1001 &2336031746548846085
PrefabInstance:
  m_ObjectHideFlags: 0
  serializedVersion: 2
  m_Modification:
    m_TransformParent: {fileID: 0}
    m_Modifications:
    - target: {fileID: 2301470614984445112, guid: daa76420a0580fd44aa1b02390f055ae,
        type: 3}
      propertyPath: m_Name
      value: Directional Light (1)
      objectReference: {fileID: 0}
    - target: {fileID: 2301470614984445114, guid: daa76420a0580fd44aa1b02390f055ae,
        type: 3}
      propertyPath: m_LocalPosition.x
      value: -18.095274
      objectReference: {fileID: 0}
    - target: {fileID: 2301470614984445114, guid: daa76420a0580fd44aa1b02390f055ae,
        type: 3}
      propertyPath: m_LocalPosition.y
      value: 1.9297086
      objectReference: {fileID: 0}
    - target: {fileID: 2301470614984445114, guid: daa76420a0580fd44aa1b02390f055ae,
        type: 3}
      propertyPath: m_LocalPosition.z
      value: 1.1358608
      objectReference: {fileID: 0}
    - target: {fileID: 2301470614984445114, guid: daa76420a0580fd44aa1b02390f055ae,
        type: 3}
      propertyPath: m_LocalRotation.x
      value: 0.44382688
      objectReference: {fileID: 0}
    - target: {fileID: 2301470614984445114, guid: daa76420a0580fd44aa1b02390f055ae,
        type: 3}
      propertyPath: m_LocalRotation.y
      value: -0.15710665
      objectReference: {fileID: 0}
    - target: {fileID: 2301470614984445114, guid: daa76420a0580fd44aa1b02390f055ae,
        type: 3}
      propertyPath: m_LocalRotation.z
      value: -0.050284337
      objectReference: {fileID: 0}
    - target: {fileID: 2301470614984445114, guid: daa76420a0580fd44aa1b02390f055ae,
        type: 3}
      propertyPath: m_LocalRotation.w
      value: 0.88079894
      objectReference: {fileID: 0}
    - target: {fileID: 2301470614984445114, guid: daa76420a0580fd44aa1b02390f055ae,
        type: 3}
      propertyPath: m_RootOrder
      value: 0
      objectReference: {fileID: 0}
    - target: {fileID: 2301470614984445114, guid: daa76420a0580fd44aa1b02390f055ae,
        type: 3}
      propertyPath: m_LocalEulerAnglesHint.x
      value: 50.000004
      objectReference: {fileID: 0}
    - target: {fileID: 2301470614984445114, guid: daa76420a0580fd44aa1b02390f055ae,
        type: 3}
      propertyPath: m_LocalEulerAnglesHint.y
      value: -30.000002
      objectReference: {fileID: 0}
    - target: {fileID: 2301470614984445114, guid: daa76420a0580fd44aa1b02390f055ae,
        type: 3}
      propertyPath: m_LocalEulerAnglesHint.z
      value: -20.779001
      objectReference: {fileID: 0}
    m_RemovedComponents: []
  m_SourcePrefab: {fileID: 100100000, guid: daa76420a0580fd44aa1b02390f055ae, type: 3}
